%YAML 1.1
%TAG !u! tag:unity3d.com,2011:
--- !u!114 &11400000
MonoBehaviour:
  m_ObjectHideFlags: 0
  m_CorrespondingSourceObject: {fileID: 0}
  m_PrefabInstance: {fileID: 0}
  m_PrefabAsset: {fileID: 0}
  m_GameObject: {fileID: 0}
  m_Enabled: 1
  m_EditorHideFlags: 0
  m_Script: {fileID: 11500000, guid: f98ebd86173af41bab7b5911a6fea8c1, type: 3}
  m_Name: LionStudios.LionSettings
  m_EditorClassIdentifier: 
  _General:
    _InitLionKitOnLoad: 1
    _EnableAppReview: 0
    _UseMultiDexSupport: 1
    _UseProGuard: 1
    _OverrideGradlePluginVersion: 0
    _GradlePluginOverride: 
  _RemoteConfig:
    _MinimumInterstitialInterval: 0
    _RVInterstitialTimer: 0
    _InterstitialStartTimer: 0
    _InterstitialStartLevel: 0
    _BannersDisabled: 0
  _GDPR:
    _Prefab: {fileID: 2580100979696526431, guid: 0c04077cf270f4ad1a311dfcf1d60aef,
      type: 3}
    _AppName: mostwantedmaster
    _FixItBannerHeight: 0.85
    _Font: {fileID: 0}
    _FontScale: 1
    _TitleFontColor: {r: 1, g: 1, b: 1, a: 1}
    _BaseFontColor: {r: 0, g: 0, b: 0, a: 1}
    _SecondaryColor: {r: 1, g: 0, b: 0, a: 1}
    _ShowBorders: 1
    _BackgroundColor: {r: 1, g: 1, b: 1, a: 1}
    _PrivacyLinks: []
  _AppLovin:
    _Enabled: 0
    _SDKKey: 
    _MaxAdReviewEnabled: 1
    _BannerAdBackgroundColor: {r: 1, g: 1, b: 1, a: 1}
    _iOSRewardedAdUnitId: 
    _iOSInterstitialAdUnitId: 
    _iOSBannerAdUnitId: 
    _AndroidRewardedAdUnitId: 
    _AndroidInterstitialAdUnitId: 
    _AndroidBannerAdUnitId: 
    _iOSAdMobAppId: 
    _AndroidAdMobAppId: 
  _Facebook:
    _Enabled: 1
    _AppId: 765466670751367
    _AppName: mostwantedmaster
    _AutoLogAppEventsEnabled: 1
  _Adjust:
    _Enabled: 1
    _SandboxMode: 0
    _iOSToken: 
    _AndroidToken: rh43ys2un5z4
  _Firebase:
    _Enabled: 0
    _RegisterForStandardEvents: 0
    _RegisterForUAEvents: 1
  _InAppPurchase:
    _Enabled: 0
    _ValidatePurchases: 0
    _AllowRestorePurchases: 0
  _Debugging:
    _EnableDebugger: 1
    _ShowAtStartup: 1
    _DebugLevel: 4
    _Prefab: {fileID: 3567132744369196153, guid: b601099fd50b54d848defd884015ca64,
      type: 3}
